file,status,datatype,title1,title2,author,date,licence,description,keywords,rights
No_man_is_an_island.txt,pending,http://purl.org/coar/resource_type/c_18cf,No man is an island [en],沒有人是一座島嶼 [zh],"Donne, John",1839,CC-BY-4.0,un premier livre,chance,
Pratas_Island.png,pending,http://purl.org/coar/resource_type/c_c513,Pratas Island [en],îles Pratas [fr],"KA, Mumu",1949-10-10,CC-BY-4.0,une deuxième image,solitude,
News.m4a,pending,http://purl.org/coar/resource_type/c_18cc,News [en],Nachrichten [de],NBC,2000,CC-BY-4.0,un 3ème audio,"usa, sound",
Discovery.mov,pending,http://purl.org/coar/resource_type/c_12ce,Discovery [en],Ανακάλυψη [el],"MOUSE, Mickey",2270-09,CC-BY-4.0,une 4ème vidéo,"tree, eyes",
